tb/top_tb.vcd
$date
	Fri Jan 30 15:34:33 2026
$end
$version
	Icarus Verilog
$end
$timescale
	1ps
$end
$scope module top_tb $end
$var wire 8 ! portDwire [7:0] $end
$var wire 8 " portCwire [7:0] $end
$var wire 8 # portBwire [7:0] $end
$var wire 8 $ portAwire [7:0] $end
$var parameter 32 % WIDTH $end
$var reg 1 & clk $end
$var reg 1 ' rst $end
$scope module dut $end
$var wire 1 & clk $end
$var wire 1 ' rst $end
$var wire 1 ( wrJumpAdr $end
$var wire 1 ) wrDm $end
$var wire 1 * rstPC $end
$var wire 8 + portDwire [7:0] $end
$var wire 1 , portDirD $end
$var wire 1 - portDirC $end
$var wire 1 . portDirB $end
$var wire 1 / portDirA $end
$var wire 8 0 portCwire [7:0] $end
$var wire 8 1 portBwire [7:0] $end
$var wire 8 2 portAwire [7:0] $end
$var wire 8 3 jumpAdr [7:0] $end
$var wire 1 4 flag_z_out $end
$var wire 1 5 flag_z_alu $end
$var wire 1 6 flag_v_out $end
$var wire 1 7 flag_v_alu $end
$var wire 1 8 flag_s_out $end
$var wire 1 9 flag_s_alu $end
$var wire 1 : flag_p_out $end
$var wire 1 ; flag_p_alu $end
$var wire 1 < flag_c_out $end
$var wire 1 = flag_c_alu $end
$var wire 13 > dataProgMem [12:0] $end
$var wire 8 ? dataMemOut [7:0] $end
$var wire 8 @ dataImm [7:0] $end
$var wire 1 A ceR7 $end
$var wire 1 B ceR6 $end
$var wire 1 C ceR5 $end
$var wire 1 D ceR4 $end
$var wire 1 E ceR3 $end
$var wire 1 F ceR2 $end
$var wire 1 G ceR1 $end
$var wire 1 H ceR0 $end
$var wire 1 I cePortOutD $end
$var wire 1 J cePortOutC $end
$var wire 1 K cePortOutB $end
$var wire 1 L cePortOutA $end
$var wire 1 M cePortDirD $end
$var wire 1 N cePortDirC $end
$var wire 1 O cePortDirB $end
$var wire 1 P cePortDirA $end
$var wire 1 Q cePC $end
$var wire 1 R ceAcu $end
$var wire 8 S aluOut [7:0] $end
$var wire 4 T aluOper [3:0] $end
$var wire 2 U adrSrc [1:0] $end
$var wire 3 V adrReg [2:0] $end
$var wire 8 W adrProgMem [7:0] $end
$var wire 2 X adrPort [1:0] $end
$var wire 8 Y adrDataMem [7:0] $end
$var wire 8 Z accumulatorOut [7:0] $end
$var wire 8 [ R7out [7:0] $end
$var wire 8 \ R6out [7:0] $end
$var wire 8 ] R5out [7:0] $end
$var wire 8 ^ R4out [7:0] $end
$var wire 8 _ R3out [7:0] $end
$var wire 8 ` R2out [7:0] $end
$var wire 8 a R1out [7:0] $end
$var wire 8 b R0out [7:0] $end
$var parameter 32 c WIDTH $end
$var parameter 32 d data_mem_length $end
$var parameter 32 e data_mem_width $end
$var parameter 32 f prog_mem_length $end
$var parameter 32 g prog_mem_width $end
$var reg 8 h aluInput [7:0] $end
$var reg 8 i portMuxOut [7:0] $end
$var reg 8 j regMuxOut [7:0] $end
$scope module R0 $end
$var wire 1 & clk $end
$var wire 1 ' rst $end
$var wire 8 k in [7:0] $end
$var wire 1 H ce $end
$var parameter 32 l WIDTH $end
$var reg 8 m out [7:0] $end
$upscope $end
$scope module R1 $end
$var wire 1 & clk $end
$var wire 1 ' rst $end
$var wire 8 n in [7:0] $end
$var wire 1 G ce $end
$var parameter 32 o WIDTH $end
$var reg 8 p out [7:0] $end
$upscope $end
$scope module R2 $end
$var wire 1 & clk $end
$var wire 1 ' rst $end
$var wire 8 q in [7:0] $end
$var wire 1 F ce $end
$var parameter 32 r WIDTH $end
$var reg 8 s out [7:0] $end
$upscope $end
$scope module R3 $end
$var wire 1 & clk $end
$var wire 1 ' rst $end
$var wire 8 t in [7:0] $end
$var wire 1 E ce $end
$var parameter 32 u WIDTH $end
$var reg 8 v out [7:0] $end
$upscope $end
$scope module R4 $end
$var wire 1 & clk $end
$var wire 1 ' rst $end
$var wire 8 w in [7:0] $end
$var wire 1 D ce $end
$var parameter 32 x WIDTH $end
$var reg 8 y out [7:0] $end
$upscope $end
$scope module R5 $end
$var wire 1 & clk $end
$var wire 1 ' rst $end
$var wire 8 z in [7:0] $end
$var wire 1 C ce $end
$var parameter 32 { WIDTH $end
$var reg 8 | out [7:0] $end
$upscope $end
$scope module R6 $end
$var wire 1 & clk $end
$var wire 1 ' rst $end
$var wire 8 } in [7:0] $end
$var wire 1 B ce $end
$var parameter 32 ~ WIDTH $end
$var reg 8 !" out [7:0] $end
$upscope $end
$scope module R7 $end
$var wire 1 & clk $end
$var wire 1 ' rst $end
$var wire 8 "" in [7:0] $end
$var wire 1 A ce $end
$var parameter 32 #" WIDTH $end
$var reg 8 $" out [7:0] $end
$upscope $end
$scope module accumulator0 $end
$var wire 1 & clk $end
$var wire 1 ' rst $end
$var wire 8 %" in [7:0] $end
$var wire 1 R ceAcu $end
$var parameter 32 &" WIDTH $end
$var reg 8 '" out [7:0] $end
$upscope $end
$scope module alu0 $end
$var wire 8 (" data [7:0] $end
$var wire 8 )" from_accumulator [7:0] $end
$var wire 1 < carry_in $end
$var wire 4 *" aluOper [3:0] $end
$var parameter 32 +" WIDTH $end
$var reg 1 = flag_c_alu $end
$var reg 1 ; flag_p_alu $end
$var reg 1 9 flag_s_alu $end
$var reg 1 7 flag_v_alu $end
$var reg 1 5 flag_z_alu $end
$var reg 8 ," out [7:0] $end
$upscope $end
$scope module dataMemory0 $end
$var wire 8 -" in [7:0] $end
$var wire 8 ." out [7:0] $end
$var wire 1 ) wrDm $end
$var wire 8 /" addr [7:0] $end
$var parameter 32 0" data_mem_length $end
$var parameter 32 1" data_mem_width $end
$upscope $end
$scope module decoder0 $end
$var wire 1 4 flag_z_out $end
$var wire 1 6 flag_v_out $end
$var wire 1 8 flag_s_out $end
$var wire 1 : flag_p_out $end
$var wire 1 < flag_c_out $end
$var wire 13 2" dataProgMem [12:0] $end
$var parameter 32 3" data_mem_length $end
$var parameter 32 4" data_mem_width $end
$var parameter 32 5" prog_mem_length $end
$var parameter 32 6" prog_mem_width $end
$var reg 8 7" adrDataMem [7:0] $end
$var reg 2 8" adrPort [1:0] $end
$var reg 3 9" adrReg [2:0] $end
$var reg 2 :" adrSrc [1:0] $end
$var reg 4 ;" aluOper [3:0] $end
$var reg 1 R ceAcu $end
$var reg 1 Q cePC $end
$var reg 1 P cePortDirA $end
$var reg 1 O cePortDirB $end
$var reg 1 N cePortDirC $end
$var reg 1 M cePortDirD $end
$var reg 1 L cePortOutA $end
$var reg 1 K cePortOutB $end
$var reg 1 J cePortOutC $end
$var reg 1 I cePortOutD $end
$var reg 1 H ceR0 $end
$var reg 1 G ceR1 $end
$var reg 1 F ceR2 $end
$var reg 1 E ceR3 $end
$var reg 1 D ceR4 $end
$var reg 1 C ceR5 $end
$var reg 1 B ceR6 $end
$var reg 1 A ceR7 $end
$var reg 8 <" dataImm [7:0] $end
$var reg 8 =" jumpAdr [7:0] $end
$var reg 1 / portDirA $end
$var reg 1 . portDirB $end
$var reg 1 - portDirC $end
$var reg 1 , portDirD $end
$var reg 1 * rstPC $end
$var reg 1 ) wrDm $end
$var reg 1 ( wrJumpAdr $end
$upscope $end
$scope module flags_register0 $end
$var wire 1 >" ceFlags $end
$var wire 1 & clk $end
$var wire 1 = flag_c_alu $end
$var wire 1 ; flag_p_alu $end
$var wire 1 9 flag_s_alu $end
$var wire 1 7 flag_v_alu $end
$var wire 1 5 flag_z_alu $end
$var wire 1 ' rst $end
$var reg 1 < flag_c_out $end
$var reg 1 : flag_p_out $end
$var reg 1 8 flag_s_out $end
$var reg 1 6 flag_v_out $end
$var reg 1 4 flag_z_out $end
$upscope $end
$scope module portA $end
$var wire 1 P cePortDir $end
$var wire 1 L cePortOut $end
$var wire 1 & clk $end
$var wire 8 ?" portData [7:0] $end
$var wire 1 / portDir $end
$var wire 1 ' rst $end
$var wire 8 @" out [7:0] $end
$var parameter 32 A" WIDTH $end
$var reg 1 B" dir_reg $end
$var reg 8 C" out_reg [7:0] $end
$upscope $end
$scope module portB $end
$var wire 1 O cePortDir $end
$var wire 1 K cePortOut $end
$var wire 1 & clk $end
$var wire 8 D" portData [7:0] $end
$var wire 1 . portDir $end
$var wire 1 ' rst $end
$var wire 8 E" out [7:0] $end
$var parameter 32 F" WIDTH $end
$var reg 1 G" dir_reg $end
$var reg 8 H" out_reg [7:0] $end
$upscope $end
$scope module portC $end
$var wire 1 N cePortDir $end
$var wire 1 J cePortOut $end
$var wire 1 & clk $end
$var wire 8 I" portData [7:0] $end
$var wire 1 - portDir $end
$var wire 1 ' rst $end
$var wire 8 J" out [7:0] $end
$var parameter 32 K" WIDTH $end
$var reg 1 L" dir_reg $end
$var reg 8 M" out_reg [7:0] $end
$upscope $end
$scope module portD $end
$var wire 1 M cePortDir $end
$var wire 1 I cePortOut $end
$var wire 1 & clk $end
$var wire 8 N" portData [7:0] $end
$var wire 1 , portDir $end
$var wire 1 ' rst $end
$var wire 8 O" out [7:0] $end
$var parameter 32 P" WIDTH $end
$var reg 1 Q" dir_reg $end
$var reg 8 R" out_reg [7:0] $end
$upscope $end
$scope module programCounter0 $end
$var wire 1 Q cePC $end
$var wire 1 & clk $end
$var wire 8 S" jumpAdr [7:0] $end
$var wire 1 ' rst $end
$var wire 1 * rstPC $end
$var wire 1 ( wrJumpAdr $end
$var parameter 32 T" prog_mem_length $end
$var reg 8 U" out [7:0] $end
$upscope $end
$scope module programMemory0 $end
$var wire 8 V" addr [7:0] $end
$var wire 13 W" data [12:0] $end
$var parameter 32 X" prog_mem_length $end
$var parameter 32 Y" prog_mem_width $end
$upscope $end
$scope begin port_mux $end
$upscope $end
$scope begin register_mux $end
$upscope $end
$scope begin source_mux $end
$upscope $end
$upscope $end
$upscope $end
$enddefinitions $end
$comment Show the parameter values. $end
$dumpall
b1101 Y"
b1000 X"
b1000 T"
b1000 P"
b1000 K"
b1000 F"
b1000 A"
b1101 6"
b1000 5"
b1000 4"
b1000 3"
b1000 1"
b1000 0"
b1000 +"
b1000 &"
b1000 #"
b1000 ~
b1000 {
b1000 x
b1000 u
b1000 r
b1000 o
b1000 l
b1101 g
b1000 f
b1000 e
b1000 d
b1000 c
b1000 %
$end
#0
$dumpvars
b1000010000 W"
b0 V"
b0 U"
bx S"
b0 R"
0Q"
b0z O"
b0 N"
b0 M"
0L"
b0z J"
b0 I"
b0 H"
0G"
b0z E"
b0 D"
b0 C"
0B"
b0z @"
b0 ?"
1>"
bx ="
b10000 <"
b0 ;"
b0 :"
b0 9"
b0 8"
b0 7"
b1000010000 2"
b0 /"
bx ."
b0 -"
b10000 ,"
b0 *"
b0 )"
b10000 ("
b0 '"
b10000 %"
b0 $"
b0 ""
b0 !"
b0 }
b0 |
b0 z
b0 y
b0 w
b0 v
b0 t
b0 s
b0 q
b0 p
b0 n
b0 m
b0 k
b0 j
b0z i
b10000 h
b0 b
b0 a
b0 `
b0 _
b0 ^
b0 ]
b0 \
b0 [
b0 Z
b0 Y
b0 X
b0 W
b0 V
b0 U
b0 T
b10000 S
1R
1Q
0P
0O
0N
0M
0L
0K
0J
0I
0H
0G
0F
0E
0D
0C
0B
0A
b10000 @
bx ?
b1000010000 >
0=
x<
0;
x:
09
x8
07
x6
05
x4
bx 3
b0z 2
b0z 1
b0z 0
0/
0.
0-
0,
b0z +
0*
0)
x(
1'
0&
b0z $
b0z #
b0z "
b0z !
$end
#5000
b10000 S
b10000 %"
b10000 ,"
1R
b10000 @
b10000 <"
0:
06
08
04
0<
1&
#7000
0'
#10000
0&
#15000
1;
15
b0 h
b0 ("
b0 S
b0 %"
b0 ,"
1D
0R
b0 @
b0 <"
b10000 Z
b10000 k
b10000 n
b10000 q
b10000 t
b10000 w
b10000 z
b10000 }
b10000 ""
b10000 '"
b10000 )"
b10000 -"
b10000 ?"
b10000 D"
b10000 I"
b10000 N"
b10000000100 >
b10000000100 2"
b10000000100 W"
b1 W
b1 U"
b1 V"
1&
#20000
0&
#25000
19
05
b11110000 S
b11110000 %"
b11110000 ,"
b11110000 h
b11110000 ("
1R
b11110000 @
b11110000 <"
0D
b10000 ^
b10000 y
b1011110000 >
b1011110000 2"
b1011110000 W"
b10 W
b10 U"
b10 V"
1:
14
1&
#30000
0&
#35000
09
15
b10000 j
b10000 h
b10000 ("
1;
1=
b0 S
b0 %"
b0 ,"
b10 T
b10 *"
b10 ;"
b1 U
b1 :"
b100 V
b100 9"
1R
b0 @
b0 <"
b11110000 Z
b11110000 k
b11110000 n
b11110000 q
b11110000 t
b11110000 w
b11110000 z
b11110000 }
b11110000 ""
b11110000 '"
b11110000 )"
b11110000 -"
b11110000 ?"
b11110000 D"
b11110000 I"
b11110000 N"
18
04
b100000000100 >
b100000000100 2"
b100000000100 W"
b11 W
b11 U"
b11 V"
1&
#40000
0&
#45000
b0 h
b0 ("
b0 j
1;
15
b0 S
b0 %"
b0 ,"
0=
1(
b1010 3
b1010 ="
b1010 S"
0Q
0R
b0 T
b0 *"
b0 ;"
b0 U
b0 :"
b0 V
b0 9"
b0 Z
b0 k
b0 n
b0 q
b0 t
b0 w
b0 z
b0 }
b0 ""
b0 '"
b0 )"
b0 -"
b0 ?"
b0 D"
b0 I"
b0 N"
b1010100001010 >
b1010100001010 2"
b1010100001010 W"
b100 W
b100 U"
b100 V"
08
14
1<
1&
#50000
0&
#55000
0;
05
b111 S
b111 %"
b111 ,"
b111 h
b111 ("
1R
b111 @
b111 <"
1Q
0<
b1000000111 >
b1000000111 2"
b1000000111 W"
b1010 W
b1010 U"
b1010 V"
1&
#60000
0&
#65000
1;
15
b0 h
b0 ("
b0 S
b0 %"
b0 ,"
0R
b0 @
b0 <"
b111 Z
b111 k
b111 n
b111 q
b111 t
b111 w
b111 z
b111 }
b111 ""
b111 '"
b111 )"
b111 -"
b111 ?"
b111 D"
b111 I"
b111 N"
b111100000000 >
b111100000000 2"
b111100000000 W"
b1011 W
b1011 U"
b1011 V"
0:
04
1&
#70000
0&
#75000
1:
14
b1100 W
b1100 U"
b1100 V"
1&
#80000
0&
#85000
bx >
bx 2"
bx W"
b1101 W
b1101 U"
b1101 V"
1&
#90000
0&
#95000
b1110 W
b1110 U"
b1110 V"
1&
#100000
0&
#105000
b1111 W
b1111 U"
b1111 V"
1&
#110000
0&
#115000
b10000 W
b10000 U"
b10000 V"
1&
#120000
0&
#125000
b10001 W
b10001 U"
b10001 V"
1&
#130000
0&
#135000
b10010 W
b10010 U"
b10010 V"
1&
#140000
0&
#145000
b10011 W
b10011 U"
b10011 V"
1&
#150000
0&
#155000
b10100 W
b10100 U"
b10100 V"
1&
#160000
0&
#165000
b10101 W
b10101 U"
b10101 V"
1&
#170000
0&
#175000
b10110 W
b10110 U"
b10110 V"
1&
#180000
0&
#185000
b10111 W
b10111 U"
b10111 V"
1&
#190000
0&
#195000
b11000 W
b11000 U"
b11000 V"
1&
#200000
0&
#205000
b11001 W
b11001 U"
b11001 V"
1&
#210000
0&
#215000
b11010 W
b11010 U"
b11010 V"
1&
#220000
0&
#225000
b11011 W
b11011 U"
b11011 V"
1&
#230000
0&
#235000
b11100 W
b11100 U"
b11100 V"
1&
#240000
0&
#245000
b11101 W
b11101 U"
b11101 V"
1&
#250000
0&
#255000
b11110 W
b11110 U"
b11110 V"
1&
#260000
0&
#265000
b11111 W
b11111 U"
b11111 V"
1&
#270000
0&
#275000
b100000 W
b100000 U"
b100000 V"
1&
#280000
0&
#285000
b100001 W
b100001 U"
b100001 V"
1&
#290000
0&
#295000
b100010 W
b100010 U"
b100010 V"
1&
#300000
0&
#305000
b100011 W
b100011 U"
b100011 V"
1&
#310000
0&
#315000
b100100 W
b100100 U"
b100100 V"
1&
#320000
0&
#325000
b100101 W
b100101 U"
b100101 V"
1&
#330000
0&
#335000
b100110 W
b100110 U"
b100110 V"
1&
#340000
0&
#345000
b100111 W
b100111 U"
b100111 V"
1&
#350000
0&
#355000
b101000 W
b101000 U"
b101000 V"
1&
#360000
0&
#365000
b101001 W
b101001 U"
b101001 V"
1&
#370000
0&
#375000
b101010 W
b101010 U"
b101010 V"
1&
#380000
0&
#385000
b101011 W
b101011 U"
b101011 V"
1&
#390000
0&
#395000
b101100 W
b101100 U"
b101100 V"
1&
#400000
0&
#405000
b101101 W
b101101 U"
b101101 V"
1&
#410000
0&
#415000
b101110 W
b101110 U"
b101110 V"
1&
#420000
0&
#425000
b101111 W
b101111 U"
b101111 V"
1&
#430000
0&
#435000
b110000 W
b110000 U"
b110000 V"
1&
#440000
0&
#445000
b110001 W
b110001 U"
b110001 V"
1&
#450000
0&
#455000
b110010 W
b110010 U"
b110010 V"
1&
#460000
0&
#465000
b110011 W
b110011 U"
b110011 V"
1&
#470000
0&
#475000
b110100 W
b110100 U"
b110100 V"
1&
#480000
0&
#485000
b110101 W
b110101 U"
b110101 V"
1&
#490000
0&
#495000
b110110 W
b110110 U"
b110110 V"
1&
#500000
0&
#505000
b110111 W
b110111 U"
b110111 V"
1&
#510000
0&
#515000
b111000 W
b111000 U"
b111000 V"
1&
#520000
0&
#525000
b111001 W
b111001 U"
b111001 V"
1&
#530000
0&
#535000
b111010 W
b111010 U"
b111010 V"
1&
#540000
0&
#545000
b111011 W
b111011 U"
b111011 V"
1&
#550000
0&
#555000
b111100 W
b111100 U"
b111100 V"
1&
#560000
0&
#565000
b111101 W
b111101 U"
b111101 V"
1&
#570000
0&
#575000
b111110 W
b111110 U"
b111110 V"
1&
#580000
0&
#585000
b111111 W
b111111 U"
b111111 V"
1&
#590000
0&
#595000
b1000000 W
b1000000 U"
b1000000 V"
1&
#600000
0&
#605000
b1000001 W
b1000001 U"
b1000001 V"
1&
#610000
0&
#615000
b1000010 W
b1000010 U"
b1000010 V"
1&
#620000
0&
#625000
b1000011 W
b1000011 U"
b1000011 V"
1&
#630000
0&
#635000
b1000100 W
b1000100 U"
b1000100 V"
1&
#640000
0&
#645000
b1000101 W
b1000101 U"
b1000101 V"
1&
#650000
0&
#655000
b1000110 W
b1000110 U"
b1000110 V"
1&
#660000
0&
#665000
b1000111 W
b1000111 U"
b1000111 V"
1&
#670000
0&
#675000
b1001000 W
b1001000 U"
b1001000 V"
1&
#680000
0&
#685000
b1001001 W
b1001001 U"
b1001001 V"
1&
#690000
0&
#695000
b1001010 W
b1001010 U"
b1001010 V"
1&
#700000
0&
#705000
b1001011 W
b1001011 U"
b1001011 V"
1&
#710000
0&
#715000
b1001100 W
b1001100 U"
b1001100 V"
1&
#720000
0&
#725000
b1001101 W
b1001101 U"
b1001101 V"
1&
#730000
0&
#735000
b1001110 W
b1001110 U"
b1001110 V"
1&
#740000
0&
#745000
b1001111 W
b1001111 U"
b1001111 V"
1&
#750000
0&
#755000
b1010000 W
b1010000 U"
b1010000 V"
1&
#760000
0&
#765000
b1010001 W
b1010001 U"
b1010001 V"
1&
#770000
0&
#775000
b1010010 W
b1010010 U"
b1010010 V"
1&
#780000
0&
#785000
b1010011 W
b1010011 U"
b1010011 V"
1&
#790000
0&
#795000
b1010100 W
b1010100 U"
b1010100 V"
1&
#800000
0&
#805000
b1010101 W
b1010101 U"
b1010101 V"
1&
#810000
0&
#815000
b1010110 W
b1010110 U"
b1010110 V"
1&
#820000
0&
#825000
b1010111 W
b1010111 U"
b1010111 V"
1&
#830000
0&
#835000
b1011000 W
b1011000 U"
b1011000 V"
1&
#840000
0&
#845000
b1011001 W
b1011001 U"
b1011001 V"
1&
#850000
0&
#855000
b1011010 W
b1011010 U"
b1011010 V"
1&
#860000
0&
#865000
b1011011 W
b1011011 U"
b1011011 V"
1&
#870000
0&
#875000
b1011100 W
b1011100 U"
b1011100 V"
1&
#880000
0&
#885000
b1011101 W
b1011101 U"
b1011101 V"
1&
#890000
0&
#895000
b1011110 W
b1011110 U"
b1011110 V"
1&
#900000
0&
#905000
b1011111 W
b1011111 U"
b1011111 V"
1&
#910000
0&
#915000
b1100000 W
b1100000 U"
b1100000 V"
1&
#920000
0&
#925000
b1100001 W
b1100001 U"
b1100001 V"
1&
#930000
0&
#935000
b1100010 W
b1100010 U"
b1100010 V"
1&
#940000
0&
#945000
b1100011 W
b1100011 U"
b1100011 V"
1&
#950000
0&
#955000
b1100100 W
b1100100 U"
b1100100 V"
1&
#960000
0&
#965000
b1100101 W
b1100101 U"
b1100101 V"
1&
#970000
0&
#975000
b1100110 W
b1100110 U"
b1100110 V"
1&
#980000
0&
#985000
b1100111 W
b1100111 U"
b1100111 V"
1&
#990000
0&
#995000
b1101000 W
b1101000 U"
b1101000 V"
1&
#1000000
0&
#1005000
b1101001 W
b1101001 U"
b1101001 V"
1&
#1010000
0&
#1015000
b1101010 W
b1101010 U"
b1101010 V"
1&
#1020000
0&
#1025000
b1101011 W
b1101011 U"
b1101011 V"
1&
#1030000
0&
#1035000
b1101100 W
b1101100 U"
b1101100 V"
1&
#1040000
0&
#1045000
b1101101 W
b1101101 U"
b1101101 V"
1&
#1050000
0&
#1055000
b1101110 W
b1101110 U"
b1101110 V"
1&
#1060000
0&
#1065000
b1101111 W
b1101111 U"
b1101111 V"
1&
#1070000
0&
#1075000
b1110000 W
b1110000 U"
b1110000 V"
1&
#1080000
0&
#1085000
b1110001 W
b1110001 U"
b1110001 V"
1&
#1090000
0&
#1095000
b1110010 W
b1110010 U"
b1110010 V"
1&
#1100000
0&
#1105000
b1110011 W
b1110011 U"
b1110011 V"
1&
#1110000
0&
#1115000
b1110100 W
b1110100 U"
b1110100 V"
1&
#1120000
0&
#1125000
b1110101 W
b1110101 U"
b1110101 V"
1&
#1130000
0&
#1135000
b1110110 W
b1110110 U"
b1110110 V"
1&
#1140000
0&
#1145000
b1110111 W
b1110111 U"
b1110111 V"
1&
#1150000
0&
#1155000
b1111000 W
b1111000 U"
b1111000 V"
1&
#1160000
0&
#1165000
b1111001 W
b1111001 U"
b1111001 V"
1&
#1170000
0&
#1175000
b1111010 W
b1111010 U"
b1111010 V"
1&
#1180000
0&
#1185000
b1111011 W
b1111011 U"
b1111011 V"
1&
#1190000
0&
#1195000
b1111100 W
b1111100 U"
b1111100 V"
1&
#1200000
0&
#1205000
b1111101 W
b1111101 U"
b1111101 V"
1&
#1210000
0&
#1215000
b1111110 W
b1111110 U"
b1111110 V"
1&
#1220000
0&
#1225000
b1111111 W
b1111111 U"
b1111111 V"
1&
#1230000
0&
#1235000
b10000000 W
b10000000 U"
b10000000 V"
1&
#1240000
0&
#1245000
b10000001 W
b10000001 U"
b10000001 V"
1&
#1250000
0&
#1255000
b10000010 W
b10000010 U"
b10000010 V"
1&
#1260000
0&
#1265000
b10000011 W
b10000011 U"
b10000011 V"
1&
#1270000
0&
#1275000
b10000100 W
b10000100 U"
b10000100 V"
1&
#1280000
0&
#1285000
b10000101 W
b10000101 U"
b10000101 V"
1&
#1290000
0&
#1295000
b10000110 W
b10000110 U"
b10000110 V"
1&
#1300000
0&
#1305000
b10000111 W
b10000111 U"
b10000111 V"
1&
#1310000
0&
#1315000
b10001000 W
b10001000 U"
b10001000 V"
1&
#1320000
0&
#1325000
b10001001 W
b10001001 U"
b10001001 V"
1&
#1330000
0&
#1335000
b10001010 W
b10001010 U"
b10001010 V"
1&
#1340000
0&
#1345000
b10001011 W
b10001011 U"
b10001011 V"
1&
#1350000
0&
#1355000
b10001100 W
b10001100 U"
b10001100 V"
1&
#1360000
0&
#1365000
b10001101 W
b10001101 U"
b10001101 V"
1&
#1370000
0&
#1375000
b10001110 W
b10001110 U"
b10001110 V"
1&
#1380000
0&
#1385000
b10001111 W
b10001111 U"
b10001111 V"
1&
#1390000
0&
#1395000
b10010000 W
b10010000 U"
b10010000 V"
1&
#1400000
0&
#1405000
b10010001 W
b10010001 U"
b10010001 V"
1&
#1410000
0&
#1415000
b10010010 W
b10010010 U"
b10010010 V"
1&
#1420000
0&
#1425000
b10010011 W
b10010011 U"
b10010011 V"
1&
#1430000
0&
#1435000
b10010100 W
b10010100 U"
b10010100 V"
1&
#1440000
0&
#1445000
b10010101 W
b10010101 U"
b10010101 V"
1&
#1450000
0&
#1455000
b10010110 W
b10010110 U"
b10010110 V"
1&
#1460000
0&
#1465000
b10010111 W
b10010111 U"
b10010111 V"
1&
#1470000
0&
#1475000
b10011000 W
b10011000 U"
b10011000 V"
1&
#1480000
0&
#1485000
b10011001 W
b10011001 U"
b10011001 V"
1&
#1490000
0&
#1495000
b10011010 W
b10011010 U"
b10011010 V"
1&
#1500000
0&
#1505000
b10011011 W
b10011011 U"
b10011011 V"
1&
#1510000
0&
#1515000
b10011100 W
b10011100 U"
b10011100 V"
1&
#1520000
0&
#1525000
b10011101 W
b10011101 U"
b10011101 V"
1&
#1530000
0&
#1535000
b10011110 W
b10011110 U"
b10011110 V"
1&
#1540000
0&
#1545000
b10011111 W
b10011111 U"
b10011111 V"
1&
#1550000
0&
#1555000
b10100000 W
b10100000 U"
b10100000 V"
1&
#1560000
0&
#1565000
b10100001 W
b10100001 U"
b10100001 V"
1&
#1570000
0&
#1575000
b10100010 W
b10100010 U"
b10100010 V"
1&
#1580000
0&
#1585000
b10100011 W
b10100011 U"
b10100011 V"
1&
#1590000
0&
#1595000
b10100100 W
b10100100 U"
b10100100 V"
1&
#1600000
0&
#1605000
b10100101 W
b10100101 U"
b10100101 V"
1&
#1610000
0&
#1615000
b10100110 W
b10100110 U"
b10100110 V"
1&
#1620000
0&
#1625000
b10100111 W
b10100111 U"
b10100111 V"
1&
#1630000
0&
#1635000
b10101000 W
b10101000 U"
b10101000 V"
1&
#1640000
0&
#1645000
b10101001 W
b10101001 U"
b10101001 V"
1&
#1650000
0&
#1655000
b10101010 W
b10101010 U"
b10101010 V"
1&
#1660000
0&
#1665000
b10101011 W
b10101011 U"
b10101011 V"
1&
#1670000
0&
#1675000
b10101100 W
b10101100 U"
b10101100 V"
1&
#1680000
0&
#1685000
b10101101 W
b10101101 U"
b10101101 V"
1&
#1690000
0&
#1695000
b10101110 W
b10101110 U"
b10101110 V"
1&
#1700000
0&
#1705000
b10101111 W
b10101111 U"
b10101111 V"
1&
#1710000
0&
#1715000
b10110000 W
b10110000 U"
b10110000 V"
1&
#1720000
0&
#1725000
b10110001 W
b10110001 U"
b10110001 V"
1&
#1730000
0&
#1735000
b10110010 W
b10110010 U"
b10110010 V"
1&
#1740000
0&
#1745000
b10110011 W
b10110011 U"
b10110011 V"
1&
#1750000
0&
#1755000
b10110100 W
b10110100 U"
b10110100 V"
1&
#1760000
0&
#1765000
b10110101 W
b10110101 U"
b10110101 V"
1&
#1770000
0&
#1775000
b10110110 W
b10110110 U"
b10110110 V"
1&
#1780000
0&
#1785000
b10110111 W
b10110111 U"
b10110111 V"
1&
#1790000
0&
#1795000
b10111000 W
b10111000 U"
b10111000 V"
1&
#1800000
0&
#1805000
b10111001 W
b10111001 U"
b10111001 V"
1&
#1810000
0&
#1815000
b10111010 W
b10111010 U"
b10111010 V"
1&
#1820000
0&
#1825000
b10111011 W
b10111011 U"
b10111011 V"
1&
#1830000
0&
#1835000
b10111100 W
b10111100 U"
b10111100 V"
1&
#1840000
0&
#1845000
b10111101 W
b10111101 U"
b10111101 V"
1&
#1850000
0&
#1855000
b10111110 W
b10111110 U"
b10111110 V"
1&
#1860000
0&
#1865000
b10111111 W
b10111111 U"
b10111111 V"
1&
#1870000
0&
#1875000
b11000000 W
b11000000 U"
b11000000 V"
1&
#1880000
0&
#1885000
b11000001 W
b11000001 U"
b11000001 V"
1&
#1890000
0&
#1895000
b11000010 W
b11000010 U"
b11000010 V"
1&
#1900000
0&
#1905000
b11000011 W
b11000011 U"
b11000011 V"
1&
#1910000
0&
#1915000
b11000100 W
b11000100 U"
b11000100 V"
1&
#1920000
0&
#1925000
b11000101 W
b11000101 U"
b11000101 V"
1&
#1930000
0&
#1935000
b11000110 W
b11000110 U"
b11000110 V"
1&
#1940000
0&
#1945000
b11000111 W
b11000111 U"
b11000111 V"
1&
#1950000
0&
#1955000
b11001000 W
b11001000 U"
b11001000 V"
1&
#1960000
0&
#1965000
b11001001 W
b11001001 U"
b11001001 V"
1&
#1970000
0&
#1975000
b11001010 W
b11001010 U"
b11001010 V"
1&
#1980000
0&
#1985000
b11001011 W
b11001011 U"
b11001011 V"
1&
#1990000
0&
#1995000
b11001100 W
b11001100 U"
b11001100 V"
1&
#2000000
0&
#2005000
b11001101 W
b11001101 U"
b11001101 V"
1&
